data,cd_mun,nm_mun,pop2019_est,sigla_uf,confirmados,obitos,coef_letalidade,tx_incidencia,tx_mortalidade
2020-06-24,2200053,Acauã,7084,PI,4,0,0.0,5.65,0.0
2020-06-24,2200103,Agricolândia,5139,PI,10,0,0.0,19.46,0.0
2020-06-24,2200202,Água Branca,17411,PI,201,12,0.06,115.44,6.89
2020-06-24,2200251,Alagoinha do Piauí,7651,PI,14,0,0.0,18.3,0.0
2020-06-24,2200277,Alegrete do Piauí,4915,PI,1,0,0.0,2.03,0.0
2020-06-24,2200301,Alto Longá,14304,PI,22,1,0.05,15.38,0.7
2020-06-24,2200400,Altos,40524,PI,310,4,0.01,76.5,0.99
2020-06-24,2200459,Alvorada do Gurguéia,5419,PI,1,0,0.0,1.85,0.0
2020-06-24,2200509,Amarante,17598,PI,9,0,0.0,5.11,0.0
2020-06-24,2200608,Angical do Piauí,6788,PI,16,1,0.06,23.57,1.47
2020-06-24,2200707,Anísio de Abreu,9880,PI,18,0,0.0,18.22,0.0
2020-06-24,2200806,Antônio Almeida,3164,PI,0,0,,0.0,0.0
2020-06-24,2200905,Aroazes,5835,PI,6,1,0.17,10.28,1.71
2020-06-24,2200954,Aroeiras do Itaim,2551,PI,0,0,,0.0,0.0
2020-06-24,2201002,Arraial,4727,PI,0,0,,0.0,0.0
2020-06-24,2201051,Assunção do Piauí,7846,PI,4,0,0.0,5.1,0.0
2020-06-24,2201101,Avelino Lopes,11289,PI,3,0,0.0,2.66,0.0
2020-06-24,2201150,Baixa Grande do Ribeiro,11586,PI,43,1,0.02,37.11,0.86
2020-06-24,2201176,Barra D'Alcântara,3951,PI,1,0,0.0,2.53,0.0
2020-06-24,2201200,Barras,47066,PI,488,14,0.03,103.68,2.97
2020-06-24,2201309,Barreiras do Piauí,3348,PI,2,0,0.0,5.97,0.0
2020-06-24,2201408,Barro Duro,7032,PI,40,1,0.02,56.88,1.42
2020-06-24,2201507,Batalha,26857,PI,123,4,0.03,45.8,1.49
2020-06-24,2201556,Bela Vista do Piauí,4015,PI,1,0,0.0,2.49,0.0
2020-06-24,2201572,Belém do Piauí,3566,PI,6,1,0.17,16.83,2.8
2020-06-24,2201606,Beneditinos,10467,PI,13,3,0.23,12.42,2.87
2020-06-24,2201705,Bertolínia,5501,PI,11,0,0.0,20.0,0.0
2020-06-24,2201739,Betânia do Piauí,6205,PI,3,0,0.0,4.83,0.0
2020-06-24,2201770,Boa Hora,6781,PI,27,0,0.0,39.82,0.0
2020-06-24,2201804,Bocaina,4500,PI,10,0,0.0,22.22,0.0
2020-06-24,2201903,Bom Jesus,25179,PI,207,0,0.0,82.21,0.0
2020-06-24,2201919,Bom Princípio do Piauí,5630,PI,11,1,0.09,19.54,1.78
2020-06-24,2201929,Bonfim do Piauí,5670,PI,1,0,0.0,1.76,0.0
2020-06-24,2201945,Boqueirão do Piauí,6407,PI,10,0,0.0,15.61,0.0
2020-06-24,2201960,Brasileira,8329,PI,28,0,0.0,33.62,0.0
2020-06-24,2201988,Brejo do Piauí,3875,PI,0,0,,0.0,0.0
2020-06-24,2202000,Buriti dos Lopes,19781,PI,213,3,0.01,107.68,1.52
2020-06-24,2202026,Buriti dos Montes,8244,PI,4,1,0.25,4.85,1.21
2020-06-24,2202059,Cabeceiras do Piauí,10586,PI,9,0,0.0,8.5,0.0
2020-06-24,2202075,Cajazeiras do Piauí,3559,PI,4,0,0.0,11.24,0.0
2020-06-24,2202083,Cajueiro da Praia,7642,PI,65,2,0.03,85.06,2.62
2020-06-24,2202091,Caldeirão Grande do Piauí,5776,PI,14,0,0.0,24.24,0.0
2020-06-24,2202109,Campinas do Piauí,5613,PI,5,0,0.0,8.91,0.0
2020-06-24,2202117,Campo Alegre do Fidalgo,5045,PI,1,0,0.0,1.98,0.0
2020-06-24,2202133,Campo Grande do Piauí,5943,PI,36,1,0.03,60.58,1.68
2020-06-24,2202174,Campo Largo do Piauí,7279,PI,15,2,0.13,20.61,2.75
2020-06-24,2202208,Campo Maior,46833,PI,580,9,0.02,123.84,1.92
2020-06-24,2202251,Canavieira,3950,PI,0,0,,0.0,0.0
2020-06-24,2202307,Canto do Buriti,21187,PI,16,1,0.06,7.55,0.47
2020-06-24,2202406,Capitão de Campos,11417,PI,23,0,0.0,20.15,0.0
2020-06-24,2202455,Capitão Gervásio Oliveira,4100,PI,5,0,0.0,12.2,0.0
2020-06-24,2202505,Caracol,10916,PI,6,0,0.0,5.5,0.0
2020-06-24,2202539,Caraúbas do Piauí,5868,PI,27,0,0.0,46.01,0.0
2020-06-24,2202554,Caridade do Piauí,5067,PI,9,0,0.0,17.76,0.0
2020-06-24,2202604,Castelo do Piauí,19716,PI,19,0,0.0,9.64,0.0
2020-06-24,2202653,Caxingó,5424,PI,17,0,0.0,31.34,0.0
2020-06-24,2202703,Cocal,27787,PI,78,2,0.03,28.07,0.72
2020-06-24,2202711,Cocal de Telha,4891,PI,28,0,0.0,57.25,0.0
2020-06-24,2202729,Cocal dos Alves,6153,PI,2,0,0.0,3.25,0.0
2020-06-24,2202737,Coivaras,4020,PI,27,0,0.0,67.16,0.0
2020-06-24,2202752,Colônia do Gurguéia,6484,PI,4,1,0.25,6.17,1.54
2020-06-24,2202778,Colônia do Piauí,7656,PI,11,0,0.0,14.37,0.0
2020-06-24,2202802,Conceição do Canindé,4803,PI,0,0,,0.0,0.0
2020-06-24,2202851,Coronel José Dias,4682,PI,2,0,0.0,4.27,0.0
2020-06-24,2202901,Corrente,26644,PI,36,0,0.0,13.51,0.0
2020-06-24,2203008,Cristalândia do Piauí,8294,PI,0,0,,0.0,0.0
2020-06-24,2203107,Cristino Castro,10423,PI,3,1,0.33,2.88,0.96
2020-06-24,2203206,Curimatá,11388,PI,26,0,0.0,22.83,0.0
2020-06-24,2203230,Currais,4954,PI,1,0,0.0,2.02,0.0
2020-06-24,2203255,Curralinhos,4443,PI,12,0,0.0,27.01,0.0
2020-06-24,2203271,Curral Novo do Piauí,5343,PI,2,0,0.0,3.74,0.0
2020-06-24,2203305,Demerval Lobão,13817,PI,262,2,0.01,189.62,1.45
2020-06-24,2203354,Dirceu Arcoverde,7011,PI,33,0,0.0,47.07,0.0
2020-06-24,2203404,Dom Expedito Lopes,6904,PI,33,0,0.0,47.8,0.0
2020-06-24,2203420,Domingos Mourão,4355,PI,1,0,0.0,2.3,0.0
2020-06-24,2203453,Dom Inocêncio,9556,PI,12,0,0.0,12.56,0.0
2020-06-24,2203503,Elesbão Veloso,14602,PI,52,3,0.06,35.61,2.05
2020-06-24,2203602,Eliseu Martins,4915,PI,0,0,,0.0,0.0
2020-06-24,2203701,Esperantina,39737,PI,336,9,0.03,84.56,2.26
2020-06-24,2203750,Fartura do Piauí,5307,PI,3,0,0.0,5.65,0.0
2020-06-24,2203800,Flores do Piauí,4463,PI,2,1,0.5,4.48,2.24
2020-06-24,2203859,Floresta do Piauí,2558,PI,5,0,0.0,19.55,0.0
2020-06-24,2203909,Floriano,59935,PI,152,5,0.03,25.36,0.83
2020-06-24,2204006,Francinópolis,5348,PI,22,0,0.0,41.14,0.0
2020-06-24,2204105,Francisco Ayres,4348,PI,3,0,0.0,6.9,0.0
2020-06-24,2204154,Francisco Macedo,3184,PI,0,0,,0.0,0.0
2020-06-24,2204204,Francisco Santos,9319,PI,15,0,0.0,16.1,0.0
2020-06-24,2204303,Fronteiras,11625,PI,69,0,0.0,59.35,0.0
2020-06-24,2204352,Geminiano,5442,PI,1,0,0.0,1.84,0.0
2020-06-24,2204402,Gilbués,10690,PI,9,0,0.0,8.42,0.0
2020-06-24,2204501,Guadalupe,10499,PI,8,0,0.0,7.62,0.0
2020-06-24,2204550,Guaribas,4562,PI,0,0,,0.0,0.0
2020-06-24,2204600,Hugo Napoleão,3877,PI,7,0,0.0,18.06,0.0
2020-06-24,2204659,Ilha Grande,9426,PI,54,1,0.02,57.29,1.06
2020-06-24,2204709,Inhuma,15308,PI,49,1,0.02,32.01,0.65
2020-06-24,2204808,Ipiranga do Piauí,9811,PI,16,0,0.0,16.31,0.0
2020-06-24,2204907,Isaías Coelho,8549,PI,24,0,0.0,28.07,0.0
2020-06-24,2205003,Itainópolis,11530,PI,5,0,0.0,4.34,0.0
2020-06-24,2205102,Itaueira,11019,PI,2,1,0.5,1.82,0.91
2020-06-24,2205151,Jacobina do Piauí,5741,PI,0,0,,0.0,0.0
2020-06-24,2205201,Jaicós,19104,PI,2,0,0.0,1.05,0.0
2020-06-24,2205250,Jardim do Mulato,4504,PI,0,0,,0.0,0.0
2020-06-24,2205276,Jatobá do Piauí,4865,PI,4,0,0.0,8.22,0.0
2020-06-24,2205300,Jerumenha,4452,PI,3,0,0.0,6.74,0.0
2020-06-24,2205359,João Costa,3008,PI,0,0,,0.0,0.0
2020-06-24,2205409,Joaquim Pires,14354,PI,43,0,0.0,29.96,0.0
2020-06-24,2205458,Joca Marques,5443,PI,8,0,0.0,14.7,0.0
2020-06-24,2205508,José de Freitas,39208,PI,122,3,0.02,31.12,0.77
2020-06-24,2205516,Juazeiro do Piauí,5478,PI,9,0,0.0,16.43,0.0
2020-06-24,2205524,Júlio Borges,5627,PI,6,2,0.33,10.66,3.55
2020-06-24,2205532,Jurema,4763,PI,0,0,,0.0,0.0
2020-06-24,2205540,Lagoinha do Piauí,2845,PI,24,0,0.0,84.36,0.0
2020-06-24,2205557,Lagoa Alegre,8542,PI,8,0,0.0,9.37,0.0
2020-06-24,2205565,Lagoa do Barro do Piauí,4655,PI,80,0,0.0,171.86,0.0
2020-06-24,2205573,Lagoa de São Francisco,6758,PI,8,1,0.12,11.84,1.48
2020-06-24,2205581,Lagoa do Piauí,4064,PI,65,1,0.02,159.94,2.46
2020-06-24,2205599,Lagoa do Sítio,5177,PI,4,0,0.0,7.73,0.0
2020-06-24,2205607,Landri Sales,5295,PI,6,0,0.0,11.33,0.0
2020-06-24,2205706,Luís Correia,30311,PI,157,6,0.04,51.8,1.98
2020-06-24,2205805,Luzilândia,25486,PI,304,7,0.02,119.28,2.75
2020-06-24,2205854,Madeiro,8310,PI,77,1,0.01,92.66,1.2
2020-06-24,2205904,Manoel Emídio,5349,PI,12,2,0.17,22.43,3.74
2020-06-24,2205953,Marcolândia,8492,PI,81,2,0.02,95.38,2.36
2020-06-24,2206001,Marcos Parente,4549,PI,5,0,0.0,10.99,0.0
2020-06-24,2206050,Massapê do Piauí,6441,PI,1,0,0.0,1.55,0.0
2020-06-24,2206100,Matias Olímpio,10936,PI,24,2,0.08,21.95,1.83
2020-06-24,2206209,Miguel Alves,33760,PI,175,4,0.02,51.84,1.18
2020-06-24,2206308,Miguel Leão,1246,PI,1,0,0.0,8.03,0.0
2020-06-24,2206357,Milton Brandão,6613,PI,3,0,0.0,4.54,0.0
2020-06-24,2206407,Monsenhor Gil,10564,PI,57,2,0.04,53.96,1.89
2020-06-24,2206506,Monsenhor Hipólito,7749,PI,32,1,0.03,41.3,1.29
2020-06-24,2206605,Monte Alegre do Piauí,10613,PI,8,0,0.0,7.54,0.0
2020-06-24,2206654,Morro Cabeça no Tempo,4532,PI,11,0,0.0,24.27,0.0
2020-06-24,2206670,Morro do Chapéu do Piauí,6796,PI,71,0,0.0,104.47,0.0
2020-06-24,2206696,Murici dos Portelas,9159,PI,10,1,0.1,10.92,1.09
2020-06-24,2206704,Nazaré do Piauí,7339,PI,1,0,0.0,1.36,0.0
2020-06-24,2206720,Nazária,8570,PI,10,2,0.2,11.67,2.33
2020-06-24,2206753,Nossa Senhora de Nazaré,4870,PI,10,0,0.0,20.53,0.0
2020-06-24,2206803,Nossa Senhora dos Remédios,8692,PI,70,2,0.03,80.53,2.3
2020-06-24,2206902,Novo Oriente do Piauí,6565,PI,2,0,0.0,3.05,0.0
2020-06-24,2206951,Novo Santo Antônio,2991,PI,3,0,0.0,10.03,0.0
2020-06-24,2207009,Oeiras,37029,PI,158,0,0.0,42.67,0.0
2020-06-24,2207108,Olho D'Água do Piauí,2459,PI,12,1,0.08,48.8,4.07
2020-06-24,2207207,Padre Marcos,6868,PI,6,1,0.17,8.74,1.46
2020-06-24,2207306,Paes Landim,4129,PI,1,0,0.0,2.42,0.0
2020-06-24,2207355,Pajeú do Piauí,3389,PI,1,0,0.0,2.95,0.0
2020-06-24,2207405,Palmeira do Piauí,5043,PI,3,0,0.0,5.95,0.0
2020-06-24,2207504,Palmeirais,14539,PI,6,2,0.33,4.13,1.38
2020-06-24,2207553,Paquetá,3945,PI,0,0,,0.0,0.0
2020-06-24,2207603,Parnaguá,10791,PI,8,0,0.0,7.41,0.0
2020-06-24,2207702,Parnaíba,153078,PI,2262,53,0.02,147.77,3.46
2020-06-24,2207751,Passagem Franca do Piauí,4313,PI,13,0,0.0,30.14,0.0
2020-06-24,2207777,Patos do Piauí,6392,PI,4,0,0.0,6.26,0.0
2020-06-24,2207793,Pau D'Arco do Piauí,4045,PI,25,0,0.0,61.8,0.0
2020-06-24,2207801,Paulistana,20523,PI,24,0,0.0,11.69,0.0
2020-06-24,2207850,Pavussu,3677,PI,8,1,0.12,21.76,2.72
2020-06-24,2207900,Pedro II,38742,PI,75,5,0.07,19.36,1.29
2020-06-24,2207934,Pedro Laurentino,2536,PI,5,0,0.0,19.72,0.0
2020-06-24,2207959,Nova Santa Rita,4374,PI,0,0,,0.0,0.0
2020-06-24,2208007,Picos,78222,PI,474,8,0.02,60.6,1.02
2020-06-24,2208106,Pimenteiras,12127,PI,107,1,0.01,88.23,0.82
2020-06-24,2208205,Pio IX,18425,PI,16,1,0.06,8.68,0.54
2020-06-24,2208304,Piracuruca,28791,PI,94,4,0.04,32.65,1.39
2020-06-24,2208403,Piripiri,63742,PI,262,6,0.02,41.1,0.94
2020-06-24,2208502,Porto,12568,PI,21,0,0.0,16.71,0.0
2020-06-24,2208551,Porto Alegre do Piauí,2710,PI,0,0,,0.0,0.0
2020-06-24,2208601,Prata do Piauí,3151,PI,2,0,0.0,6.35,0.0
2020-06-24,2208650,Queimada Nova,8992,PI,41,0,0.0,45.6,0.0
2020-06-24,2208700,Redenção do Gurguéia,8778,PI,4,0,0.0,4.56,0.0
2020-06-24,2208809,Regeneração,17978,PI,13,0,0.0,7.23,0.0
2020-06-24,2208858,Riacho Frio,4312,PI,0,0,,0.0,0.0
2020-06-24,2208874,Ribeira do Piauí,4477,PI,4,0,0.0,8.93,0.0
2020-06-24,2208908,Ribeiro Gonçalves,7341,PI,92,2,0.02,125.32,2.72
2020-06-24,2209005,Rio Grande do Piauí,6432,PI,13,1,0.08,20.21,1.55
2020-06-24,2209104,Santa Cruz do Piauí,6240,PI,1,0,0.0,1.6,0.0
2020-06-24,2209153,Santa Cruz dos Milagres,4019,PI,0,0,,0.0,0.0
2020-06-24,2209203,Santa Filomena,6253,PI,2,0,0.0,3.2,0.0
2020-06-24,2209302,Santa Luz,5860,PI,17,1,0.06,29.01,1.71
2020-06-24,2209351,Santana do Piauí,4634,PI,4,0,0.0,8.63,0.0
2020-06-24,2209377,Santa Rosa do Piauí,5257,PI,3,0,0.0,5.71,0.0
2020-06-24,2209401,Santo Antônio de Lisboa,6415,PI,3,0,0.0,4.68,0.0
2020-06-24,2209450,Santo Antônio dos Milagres,2161,PI,1,0,0.0,4.63,0.0
2020-06-24,2209500,Santo Inácio do Piauí,3798,PI,2,0,0.0,5.27,0.0
2020-06-24,2209559,São Braz do Piauí,4448,PI,0,0,,0.0,0.0
2020-06-24,2209609,São Félix do Piauí,2942,PI,0,0,,0.0,0.0
2020-06-24,2209658,São Francisco de Assis do Piauí,5755,PI,3,0,0.0,5.21,0.0
2020-06-24,2209708,São Francisco do Piauí,6423,PI,1,1,1.0,1.56,1.56
2020-06-24,2209757,São Gonçalo do Gurguéia,3041,PI,4,0,0.0,13.15,0.0
2020-06-24,2209807,São Gonçalo do Piauí,5015,PI,14,1,0.07,27.92,1.99
2020-06-24,2209856,São João da Canabrava,4608,PI,2,0,0.0,4.34,0.0
2020-06-24,2209872,São João da Fronteira,6042,PI,11,0,0.0,18.21,0.0
2020-06-24,2209906,São João da Serra,6139,PI,9,0,0.0,14.66,0.0
2020-06-24,2209955,São João da Varjota,4840,PI,0,0,,0.0,0.0
2020-06-24,2209971,São João do Arraial,7989,PI,4,0,0.0,5.01,0.0
2020-06-24,2210003,São João do Piauí,20601,PI,18,0,0.0,8.74,0.0
2020-06-24,2210052,São José do Divino,5346,PI,6,2,0.33,11.22,3.74
2020-06-24,2210102,São José do Peixe,3745,PI,5,0,0.0,13.35,0.0
2020-06-24,2210201,São José do Piauí,6705,PI,15,0,0.0,22.37,0.0
2020-06-24,2210300,São Julião,6363,PI,12,1,0.08,18.86,1.57
2020-06-24,2210359,São Lourenço do Piauí,4573,PI,1,0,0.0,2.19,0.0
2020-06-24,2210375,São Luis do Piauí,2644,PI,1,0,0.0,3.78,0.0
2020-06-24,2210383,São Miguel da Baixa Grande,2452,PI,2,0,0.0,8.16,0.0
2020-06-24,2210391,São Miguel do Fidalgo,3039,PI,0,0,,0.0,0.0
2020-06-24,2210409,São Miguel do Tapuio,17662,PI,3,0,0.0,1.7,0.0
2020-06-24,2210508,São Pedro do Piauí,14291,PI,25,0,0.0,17.49,0.0
2020-06-24,2210607,São Raimundo Nonato,34710,PI,288,3,0.01,82.97,0.86
2020-06-24,2210623,Sebastião Barros,3469,PI,1,1,1.0,2.88,2.88
2020-06-24,2210631,Sebastião Leal,4294,PI,0,0,,0.0,0.0
2020-06-24,2210656,Sigefredo Pacheco,10041,PI,6,1,0.17,5.98,1.0
2020-06-24,2210706,Simões,14633,PI,26,0,0.0,17.77,0.0
2020-06-24,2210805,Simplício Mendes,12711,PI,20,0,0.0,15.73,0.0
2020-06-24,2210904,Socorro do Piauí,4569,PI,2,1,0.5,4.38,2.19
2020-06-24,2210938,Sussuapara,6730,PI,9,0,0.0,13.37,0.0
2020-06-24,2210953,Tamboril do Piauí,2919,PI,0,0,,0.0,0.0
2020-06-24,2210979,Tanque do Piauí,2765,PI,1,0,0.0,3.62,0.0
2020-06-24,2211001,Teresina,864845,PI,6618,307,0.05,76.52,3.55
2020-06-24,2211100,União,44485,PI,219,6,0.03,49.23,1.35
2020-06-24,2211209,Uruçuí,21558,PI,196,4,0.02,90.92,1.86
2020-06-24,2211308,Valença do Piauí,20918,PI,87,1,0.01,41.59,0.48
2020-06-24,2211357,Várzea Branca,4947,PI,3,1,0.33,6.06,2.02
2020-06-24,2211407,Várzea Grande,4391,PI,2,0,0.0,4.55,0.0
2020-06-24,2211506,Vera Mendes,3077,PI,4,0,0.0,13.0,0.0
2020-06-24,2211605,Vila Nova do Piauí,2971,PI,36,0,0.0,121.17,0.0
2020-06-24,2211704,Wall Ferraz,4462,PI,3,0,0.0,6.72,0.0
